…
```{r update}
spec_tbl_updated <- update_spec_table_to_latest_data(spec_tbl_trimmed)
```

### Inspect the updated dates

```{r inspect-updated}
spec_tbl_updated |>
  filter(field_label == "Month") |>
  select(value_label)
```

```
#> # A tibble: 38 × 1
#>    value_label
#>    <chr>
#>  1 August 2013
#>  2 August 2019
#>  3 September 2019
#>  4 October 2019
#>  5 November 2019
#>  6 December 2019
#>  7 January 2020
#>  8 February 2020
#>  9 March 2020
#> 10 April 2020
#> # ℹ 28 more rows
```
…
### Check which months are covered

```{r count-months}
acc_updated |> count(Month)
```

```
#> # A tibble: 38 × 2
#>    Month             n
#>    <chr>         <int>
#>  1 April 2020      306
#>  2 April 2021      306
#>  3 April 2022      306
#>  4 August 2013     306
#>  5 August 2019     306
#>  6 August 2020     306
#>  7 August 2021     306
#>  8 August 2022     306
#>  9 December 2019   306
#> 10 December 2020   306
#> # ℹ 28 more rows
```
…
